{
  "success": true,
  "model": {
     "items": [
        {
           "itemQuestionId": 418861776087,
           "question": "75 feet ma pani ko force kasto hunxa bike wash grna ko lagi",
           "questionTime": "1  week ago",
           "zonedQuestionTime": null,
           "customerName": "Nirmal L.",
           "answer": "hun6...pani ko pressure ramro hunun par6 mazzale hun6",
           "answerTime": "answered within 20  minutes",
           "zonedAnswerTime": null,
           "itemId": 104176087,
           "sellerId": 900151659039,
           "sellerName": "EOrison",
           "belongToMe": false,
           "isReportable": false,
           "isDeleted": false,
           "questionStatus": "Answered",
           "isLabel": null,
           "categoryId": 10000722,
           "categoryName": "Watering Systems & Garden Hoses",
           "rootCategoryId": 10000337,
           "rootCategoryName": "Tools, DIY & Outdoor",
           "imEnable": true,
           "imUserId": 900151659039
        },
        {
           "itemQuestionId": 417401976087,
           "question": "yo pipe direct dharako tutima jodnu milxa ki nai",
           "questionTime": "2  weeks ago",
           "zonedQuestionTime": null,
           "customerName": "Sobhit L.",
           "answer": "mil6",
           "answerTime": "answered within 4  minutes",
           "zonedAnswerTime": null,
           "itemId": 104176087,
           "sellerId": 900151659039,
           "sellerName": "EOrison",
           "belongToMe": false,
           "isReportable": false,
           "isDeleted": false,
           "questionStatus": "Answered",
           "isLabel": null,
           "categoryId": 10000722,
           "categoryName": "Watering Systems & Garden Hoses",
           "rootCategoryId": 10000337,
           "rootCategoryName": "Tools, DIY & Outdoor",
           "imEnable": true,
           "imUserId": 900151659039
        },
        {
           "itemQuestionId": 414629376087,
           "question": "yo purai 75 ft extension hunxa ki nai force pani jode paxi??",
           "questionTime": "4  weeks ago",
           "zonedQuestionTime": null,
           "customerName": "Umesh T.",
           "answer": "hun6",
           "answerTime": "answered within 3  minutes",
           "zonedAnswerTime": null,
           "itemId": 104176087,
           "sellerId": 900151659039,
           "sellerName": "EOrison",
           "belongToMe": false,
           "isReportable": false,
           "isDeleted": false,
           "questionStatus": "Answered",
           "isLabel": null,
           "categoryId": 10000722,
           "categoryName": "Watering Systems & Garden Hoses",
           "rootCategoryId": 10000337,
           "rootCategoryName": "Tools, DIY & Outdoor",
           "imEnable": true,
           "imUserId": 900151659039
        }
     ],
     "paging": {
        "totalItems": 5,
        "totalPages": 2,
        "currentPage": 1
     },
     "myQuestions": [
        {
           "itemQuestionId": 420452176087,
           "question": "test",
           "questionTime": "1  second ago",
           "zonedQuestionTime": null,
           "customerName": "Ashok S.",
           "answer": null,
           "answerTime": null,
           "zonedAnswerTime": null,
           "itemId": 104176087,
           "sellerId": 900151659039,
           "sellerName": "EOrison",
           "belongToMe": true,
           "isReportable": false,
           "isDeleted": false,
           "questionStatus": "Not answered",
           "isLabel": null,
           "categoryId": 10000722,
           "categoryName": "Watering Systems & Garden Hoses",
           "rootCategoryId": 10000337,
           "rootCategoryName": "Tools, DIY & Outdoor",
           "imEnable": true,
           "imUserId": 900151659039
        }
     ],
     "haveMainSellerAnswers": true,
     "mainSellerName": "EOrison",
     "totalItems": 5,
     "totalItemsByMain": 5,
     "totalItemsByOthers": 0,
     "isQAClosed": false,
     "imEnable": null,
     "imUserId": null
  },
  "msgCode": null,
  "httpStatusCode": 200,
  "msgInfo": null,
  "mappingCode": null,
  "headers": {},
  "bizExtMap": null
}